{
  "project_info": {
    "project_number": "535963892891",
    "project_id": "pratique-b88bb"
  },
  "client": [
    {
      "client_info": {
        "mobilesdk_app_id": "1:535963892891:android:56cec6f61ddaf905",
        "android_client_info": {
          "package_name": "com.lulucoding.pratique"
        }
      },
      "oauth_client": [
        {
          "client_id": "535963892891-3lefs2tkgh0fjq80rrnaakco2m8micgq.apps.googleusercontent.com",
          "client_type": 1,
          "android_info": {
            "package_name": "com.lulucoding.pratique",
            "certificate_hash": "7374390D6E0932CF8DE76669B1B165F977A58586"
          }
        },
        {
          "client_id": "535963892891-sqlv038d857f9luguc9sq8vshsnfj67j.apps.googleusercontent.com",
          "client_type": 3
        }
      ],
      "api_key": [
        {
          "current_key": "AIzaSyBoEYkR8jLuCpqHZDag27yl3dvNRjmFdSs"
        }
      ],
      "services": {
        "analytics_service": {
          "status": 1
        },
        "appinvite_service": {
          "status": 1,
          "other_platform_oauth_client": []
        },
        "ads_service": {
          "status": 1
        }
      }
    }
  ],
  "configuration_version": "1"
}